{
  "type": "service_account",
  "project_id": "owly-292114",
  "private_key_id": "fa74f5f13c27c90fce3060a15d390000219846a8",
  "private_key": "-----BEGIN PRIVATE KEY-----\nMIIEvAIBADANBgkqhkiG9w0BAQEFAASCBKYwggSiAgEAAoIBAQC7FNALJP5i03Us\nrtaJ6K6HkEDTvRwcTu+yBcfz+YHlPKejy5rluD0pRItKJ8XybChUG1R72ycp+k2C\nUeHcoOLyEXzpnN+5JOKWFykr5L/p+O447XQTGYPMnUX9Q3amunJLQV6uKH4zWP2/\njAL9KYKl6TtQPpRIHIgFOAb2yMQ3uyqxCHuWoYdejD33oFsH9YRmyyUyT6a8EIyJ\nw5ngTV0Yvj1z0Zj9RSWCH5VzLV8qPWz/rE8PoWgB3EtP9zhpixh/7/vAz2vow6hP\nX8B2DkD27PKjgLr7iYgX5IS1pDU0sM7I4XsD/psLgep2kzNNTFzUfOTjCqaDsuq6\naNgMrP5rAgMBAAECggEAFlS7fqZkTR9I7H6ph4hZk5ShqwShnzQW7YI+JhO22x+n\nMmiNLUrq1gsOBgSDCYG6kKDl2pZEHFZ55l/oHMysOlE3FAWl44o7wnGyTZXTs1XY\n+GeeWYyhTGJ2O8R6nG1DU6invhSBopcb9uomDdpkyMbIeIwiaWHVJKuq583631ye\nTpOZ29Y0AqlbM7+nIscSkDL/i6qR5dZ1siI5WKE8Ynjce3lIwE8/js4YvJtBOZMj\nIoGjEpQ6r+reASb97J8sfQWyoeTSvGsGxGqImydczRNbt0KRTKcopRqHsKs+BHJ/\nQV42d0g8QDXQNr7qob9j4Nw3CYfsHrSayL0x+d+3rQKBgQDgfh53rsCihZCkA7r0\nv1/QPcB1AjpHA4DEQPOUvNYZxTqR0JNpTv/EffztfaM14+5D59QPXiovNNvoDgLH\n9Ts8+Nxlxw9+SF/piOrUHY6/UKQq3Qm2LJCutJXTMp9ppx1SPgdYHwjxHi+9EPuZ\nlajA16giwyYqiJl4tmlw6aAvrQKBgQDVVobusPhH3x4bzQuyWrqxfsoWS2IOheXF\nWj25ki/wYlM74fkR2sQHKGUPAhFtzOIan8Y4aQ1qBl28zuUVWx28a/2fW++sv1Ea\nOIqm1nTfVN7zM9lSZwjGv4DpKLvDiklsgDOEtW5pVInB3fBC3E5x0EopXO5OxHl4\nj2qifejJdwKBgCTYDiAOakdCLI7+nbx1fEAtIl0R1Ia7KHMNRezvYSQxnn84ADmU\nYZ3aH5zKtfKuSfiTH9a12a6NulnHkuVGdkZ3gZSiqwRK1JL7ia7uevMjRQ5T4Lgp\ncEV8FernsAojB0jsLUBlN457KdKZ6vE2AtBDlLC/3o+0g5uwNHX3ofaxAoGAM7qW\nXzw0B6FXOKCAbI/JYw5+S+edcC4RZ8gY3W1QCHae/g8uCKFGFQI7ducmeLxMOu5w\n7u6yHPpMMmLsc0AztqNszP5K4FVHghchr5CiqCB5KvlwgaWQIDkBNgf1d1WJtjBj\nzZL8obeo64Q4JM4sizZZNSxecGT9mzkTPzFOh8MCgYAp6r31/rNp0pP5FhgeY67a\na/BzE5vR+dUbI5goCmtQY2HvucN1mSM7lYiwXHYFYa/+APPzdwkBjoSOxWo/yTDZ\nJs+8EsvSnox6flvOy31LdqlsgLYXc5N6Ob22BDfRzgX9o3bjAUhlDHJlUS360JWQ\n1opaxXlpDZHDCjdAZZA+Ew==\n-----END PRIVATE KEY-----\n",
  "client_email": "owly-292114@appspot.gserviceaccount.com",
  "client_id": "108960539184623894937",
  "auth_uri": "https://accounts.google.com/o/oauth2/auth",
  "token_uri": "https://oauth2.googleapis.com/token",
  "auth_provider_x509_cert_url": "https://www.googleapis.com/oauth2/v1/certs",
  "client_x509_cert_url": "https://www.googleapis.com/robot/v1/metadata/x509/owly-292114%40appspot.gserviceaccount.com"
}
